<?xml version="1.0" encoding="UTF-8" standalone="no"?>
<!-- Created with Inkscape (http://www.inkscape.org/) -->

<svg
   width="512"
   height="512"
   id="svg3336"
   version="1.1"
   inkscape:version="1.1.2 (0a00cf5339, 2022-02-04)"
   sodipodi:docname="luitk.svg"
   inkscape:export-filename="app_shape02.png"
   inkscape:export-xdpi="180"
   inkscape:export-ydpi="180"
   style="enable-background:new"
   viewBox="0 0 512 512"
   xmlns:inkscape="http://www.inkscape.org/namespaces/inkscape"
   xmlns:sodipodi="http://sodipodi.sourceforge.net/DTD/sodipodi-0.dtd"
   xmlns:xlink="http://www.w3.org/1999/xlink"
   xmlns="http://www.w3.org/2000/svg"
   xmlns:svg="http://www.w3.org/2000/svg"
   xmlns:rdf="http://www.w3.org/1999/02/22-rdf-syntax-ns#"
   xmlns:cc="http://creativecommons.org/ns#"
   xmlns:dc="http://purl.org/dc/elements/1.1/">
  <defs
     id="defs3338">
    <linearGradient
       id="linearGradient50524">
      <stop
         id="stop50514"
         offset="0"
         style="stop-color:#ffffff;stop-opacity:0" />
      <stop
         style="stop-color:#ffffff;stop-opacity:1"
         offset="0.15000001"
         id="stop50516" />
      <stop
         style="stop-color:#ffffff;stop-opacity:1"
         offset="0.75"
         id="stop50518" />
      <stop
         id="stop50520"
         offset="0.85920149"
         style="stop-color:#ffffff;stop-opacity:0.24705882;" />
      <stop
         id="stop50522"
         offset="1"
         style="stop-color:#ffffff;stop-opacity:0;" />
    </linearGradient>
    <linearGradient
       id="linearGradient50223">
      <stop
         id="stop50213"
         offset="0"
         style="stop-color:#ffffff;stop-opacity:0" />
      <stop
         style="stop-color:#ffffff;stop-opacity:1"
         offset="0.16414887"
         id="stop50215" />
      <stop
         style="stop-color:#ffffff;stop-opacity:1"
         offset="0.70027828"
         id="stop50217" />
      <stop
         id="stop50219"
         offset="0.85920149"
         style="stop-color:#ffffff;stop-opacity:0.24705882;" />
      <stop
         id="stop50221"
         offset="1"
         style="stop-color:#ffffff;stop-opacity:0;" />
    </linearGradient>
    <rect
       x="13.521484"
       y="95.460935"
       width="420.02214"
       height="257.5773"
       id="rect25684" />
    <rect
       x="41.949219"
       y="123.89062"
       width="453.18555"
       height="264.21876"
       id="rect8152" />
    <filter
       style="color-interpolation-filters:sRGB"
       inkscape:label="Colorize"
       id="filter4154">
      <feComposite
         in2="SourceGraphic"
         operator="arithmetic"
         k1="0"
         k2="1"
         result="composite1"
         id="feComposite4156"
         k3="0"
         k4="0" />
      <feColorMatrix
         in="composite1"
         values="0"
         type="saturate"
         result="colormatrix1"
         id="feColorMatrix4158" />
      <feFlood
         flood-opacity="1"
         flood-color="rgb(89,132,51)"
         result="flood1"
         id="feFlood4160" />
      <feBlend
         in="flood1"
         in2="colormatrix1"
         mode="multiply"
         result="blend1"
         id="feBlend4162" />
      <feBlend
         in2="blend1"
         mode="screen"
         result="blend2"
         id="feBlend4164" />
      <feColorMatrix
         in="blend2"
         values="1"
         type="saturate"
         result="colormatrix2"
         id="feColorMatrix4166" />
      <feComposite
         in="colormatrix2"
         in2="SourceGraphic"
         operator="in"
         result="composite2"
         id="feComposite4168" />
    </filter>
    <filter
       inkscape:collect="always"
       style="color-interpolation-filters:sRGB"
       id="filter4264"
       x="-0.024"
       width="1.048"
       y="-0.024"
       height="1.048" />
    <linearGradient
       id="linearGradient7537">
      <stop
         style="stop-color:#44d459;stop-opacity:1"
         offset="0"
         id="stop7539" />
      <stop
         style="stop-color:#38b44a;stop-opacity:1"
         offset="1"
         id="stop7541" />
    </linearGradient>
    <clipPath
       clipPathUnits="userSpaceOnUse"
       id="clipPath4231-6">
      <rect
         style="color:#000000;display:inline;overflow:visible;visibility:visible;opacity:0.46400003;fill:#ff00ff;fill-opacity:1;fill-rule:nonzero;stroke:none;stroke-width:1;marker:none;enable-background:accumulate"
         id="rect4233-8"
         width="256"
         height="238"
         x="0"
         y="18" />
    </clipPath>
    <linearGradient
       id="linearGradient4370-8">
      <stop
         id="stop3709-7-3-5"
         offset="0"
         style="stop-color:#cecece;stop-opacity:1" />
      <stop
         style="stop-color:#dedede;stop-opacity:1"
         offset="1"
         id="stop3654-8-0-9" />
    </linearGradient>
    <linearGradient
       id="linearGradient3650-7-9">
      <stop
         style="stop-color:#ececec;stop-opacity:1"
         offset="0"
         id="stop4366" />
      <stop
         id="stop4368"
         offset="1"
         style="stop-color:#f9f9f9;stop-opacity:1" />
    </linearGradient>
    <linearGradient
       id="linearGradient4370">
      <stop
         style="stop-color:#dedede;stop-opacity:1"
         offset="0"
         id="stop4459" />
      <stop
         id="stop4461"
         offset="0.25745395"
         style="stop-color:#efefef;stop-opacity:1;" />
      <stop
         id="stop4463"
         offset="1"
         style="stop-color:#f9f9f9;stop-opacity:1" />
    </linearGradient>
    <linearGradient
       inkscape:collect="always"
       xlink:href="#linearGradient4184"
       id="linearGradient4492"
       gradientUnits="userSpaceOnUse"
       gradientTransform="translate(106.17141,255.67955)"
       spreadMethod="reflect"
       x1="139.32533"
       y1="-256"
       x2="256"
       y2="-256" />
    <linearGradient
       inkscape:collect="always"
       id="linearGradient4184">
      <stop
         style="stop-color:#ffffff;stop-opacity:1;"
         offset="0"
         id="stop4186" />
      <stop
         style="stop-color:#ffffff;stop-opacity:0;"
         offset="1"
         id="stop4188" />
    </linearGradient>
    <linearGradient
       id="linearGradient7537-1">
      <stop
         style="stop-color:#638cf2;stop-opacity:1"
         offset="0"
         id="stop7539-2" />
      <stop
         style="stop-color:#2259e1;stop-opacity:1"
         offset="1"
         id="stop7541-5" />
    </linearGradient>
    <linearGradient
       inkscape:collect="always"
       xlink:href="#linearGradient7537-1"
       id="linearGradient4287"
       x1="448"
       y1="496"
       x2="170.87187"
       y2="16.000002"
       gradientUnits="userSpaceOnUse" />
    <radialGradient
       inkscape:collect="always"
       xlink:href="#linearGradient4606"
       id="radialGradient4351"
       cx="256"
       cy="256"
       fx="256"
       fy="256"
       r="255.99995"
       gradientTransform="matrix(1.6722685,0,0,1.5803463,-140.10037,-116.56918)"
       gradientUnits="userSpaceOnUse" />
    <linearGradient
       inkscape:collect="always"
       id="linearGradient4606">
      <stop
         style="stop-color:#e4eaff;stop-opacity:1;"
         offset="0"
         id="stop4608" />
      <stop
         id="stop4616"
         offset="0.60000002"
         style="stop-color:#e4eaff;stop-opacity:0.35493827" />
      <stop
         style="stop-color:#e4eaff;stop-opacity:0.16666667"
         offset="1"
         id="stop4610" />
    </linearGradient>
    <linearGradient
       inkscape:collect="always"
       xlink:href="#linearGradient4367"
       id="linearGradient4591"
       gradientUnits="userSpaceOnUse"
       gradientTransform="matrix(-0.27777142,0.20434531,0.46778787,0.65400918,330.91409,47.141075)"
       x1="119.59516"
       y1="188.63074"
       x2="105.80988"
       y2="409.78488" />
    <linearGradient
       id="linearGradient4367">
      <stop
         id="stop4369-0"
         offset="0"
         style="stop-color:#ffffff;stop-opacity:0" />
      <stop
         style="stop-color:#ffffff;stop-opacity:1"
         offset="0.16414887"
         id="stop4371" />
      <stop
         style="stop-color:#ffffff;stop-opacity:1"
         offset="0.75"
         id="stop4373" />
      <stop
         id="stop4375-7"
         offset="0.85920149"
         style="stop-color:#ffffff;stop-opacity:0.24705882;" />
      <stop
         id="stop4377-4"
         offset="1"
         style="stop-color:#ffffff;stop-opacity:0;" />
    </linearGradient>
    <linearGradient
       inkscape:collect="always"
       xlink:href="#linearGradient3876-8-3"
       id="linearGradient4587"
       gradientUnits="userSpaceOnUse"
       gradientTransform="matrix(0.47037635,0.4590235,-1.0627188,1.0890025,548.15673,-95.665144)"
       x1="83.714714"
       y1="142.13757"
       x2="66.623817"
       y2="426.77151" />
    <linearGradient
       id="linearGradient3876-8-3">
      <stop
         id="stop3878-8-4"
         offset="0"
         style="stop-color:#ffffff;stop-opacity:0" />
      <stop
         style="stop-color:#ffffff;stop-opacity:0.74901961;"
         offset="0.26733708"
         id="stop3884-0-6" />
      <stop
         style="stop-color:#ffffff;stop-opacity:0"
         offset="0.41585767"
         id="stop3882-0-3" />
      <stop
         id="stop3888-1-2"
         offset="0.56437826"
         style="stop-color:#ffffff;stop-opacity:0" />
      <stop
         id="stop3886-7-4"
         offset="0.77887541"
         style="stop-color:#ffffff;stop-opacity:1" />
      <stop
         id="stop3880-8-9"
         offset="1"
         style="stop-color:#ffffff;stop-opacity:0;" />
    </linearGradient>
    <linearGradient
       inkscape:collect="always"
       xlink:href="#linearGradient3844-0-4"
       id="linearGradient4583"
       gradientUnits="userSpaceOnUse"
       gradientTransform="matrix(0.96119016,0,0,-1.0403828,272.32322,423.01771)"
       x1="122.90077"
       y1="125.15097"
       x2="123.91927"
       y2="293.75912" />
    <linearGradient
       id="linearGradient3844-0-4">
      <stop
         id="stop3846-1-9"
         offset="0"
         style="stop-color:#ffffff;stop-opacity:0" />
      <stop
         style="stop-color:#ffffff;stop-opacity:1"
         offset="0.25"
         id="stop3852-3-6" />
      <stop
         style="stop-color:#ffffff;stop-opacity:1"
         offset="0.5"
         id="stop3850-8-0" />
      <stop
         id="stop3854-9-1"
         offset="0.75"
         style="stop-color:#ffffff;stop-opacity:0.24705882;" />
      <stop
         id="stop3848-7-4"
         offset="1"
         style="stop-color:#ffffff;stop-opacity:0;" />
    </linearGradient>
    <linearGradient
       inkscape:collect="always"
       xlink:href="#linearGradient4367"
       id="linearGradient4578"
       gradientUnits="userSpaceOnUse"
       gradientTransform="matrix(0.86107442,0,0,1.2363514,224.91655,-75.535242)"
       x1="122.90077"
       y1="125.15097"
       x2="123.91927"
       y2="293.75912" />
    <linearGradient
       inkscape:collect="always"
       xlink:href="#linearGradient50524"
       id="linearGradient4574"
       gradientUnits="userSpaceOnUse"
       gradientTransform="matrix(0.65723396,0,0,1.5216103,199.62011,-148.52964)"
       x1="122.90077"
       y1="125.15097"
       x2="123.91927"
       y2="293.75912" />
    <linearGradient
       inkscape:collect="always"
       xlink:href="#linearGradient50223"
       id="linearGradient4570"
       gradientUnits="userSpaceOnUse"
       gradientTransform="matrix(0.59783356,0,0,1.6728494,129.80838,-68.36663)"
       x1="122.90077"
       y1="125.15097"
       x2="123.91927"
       y2="293.75912" />
    <linearGradient
       inkscape:collect="always"
       xlink:href="#linearGradient4367"
       id="linearGradient4566"
       gradientUnits="userSpaceOnUse"
       gradientTransform="matrix(0.79699565,0,0,1.2547566,88.425279,-86.15109)"
       x1="122.90077"
       y1="125.15097"
       x2="123.91927"
       y2="293.75912" />
    <linearGradient
       inkscape:collect="always"
       xlink:href="#linearGradient4367"
       id="linearGradient4562"
       x1="122.90077"
       y1="125.15097"
       x2="123.91927"
       y2="293.75912"
       gradientUnits="userSpaceOnUse"
       gradientTransform="matrix(0.88202221,0,0,1.1337851,16.476572,-27.17067)" />
    <linearGradient
       inkscape:collect="always"
       xlink:href="#linearGradient3844-0-4"
       id="linearGradient4506"
       x1="66.877937"
       y1="164.44753"
       x2="468.79462"
       y2="164.44753"
       gradientUnits="userSpaceOnUse"
       gradientTransform="matrix(1.0752958,0,0,0.9299897,-5.187288,5.06539)" />
    <clipPath
       clipPathUnits="userSpaceOnUse"
       id="clipPath4470">
      <path
         inkscape:connector-curvature="0"
         id="path4472"
         d="m 202.0121,320.75662 c 0,12.8772 -9.81226,23.2434 -22.00026,23.2434 -12.188,0 -22.00026,-10.3662 -22.00026,-23.2434 V 194.91099 c 0,-12.8772 9.81226,-23.24501 22.00026,-23.24501 12.188,0 22.00026,10.36781 22.00026,23.24501 z m -13.40326,0.93477 a 8.5967511,8.5967511 0 0 0 -8.597,-8.597 8.5967511,8.5967511 0 0 0 -8.59701,8.597 8.5967511,8.5967511 0 0 0 8.59701,8.59701 8.5967511,8.5967511 0 0 0 8.597,-8.59701 z"
         style="display:inline;fill:#ff00ff;fill-opacity:1;stroke:none;enable-background:new" />
    </clipPath>
  </defs>
  <sodipodi:namedview
     id="base"
     pagecolor="#b4b4b4"
     bordercolor="#666666"
     borderopacity="1.0"
     inkscape:pageopacity="0"
     inkscape:pageshadow="2"
     inkscape:zoom="1.0965781"
     inkscape:cx="396.68857"
     inkscape:cy="388.02526"
     inkscape:document-units="px"
     inkscape:current-layer="layer3"
     showgrid="false"
     inkscape:window-width="2486"
     inkscape:window-height="1369"
     inkscape:window-x="74"
     inkscape:window-y="34"
     inkscape:window-maximized="1"
     inkscape:snap-page="true"
     inkscape:showpageshadow="false"
     showborder="true"
     inkscape:snap-bbox="true"
     inkscape:bbox-paths="true"
     inkscape:bbox-nodes="true"
     inkscape:snap-bbox-edge-midpoints="true"
     inkscape:snap-bbox-midpoints="true"
     inkscape:object-paths="true"
     inkscape:object-nodes="true"
     inkscape:snap-intersection-paths="true"
     inkscape:snap-smooth-nodes="true"
     inkscape:snap-midpoints="true"
     inkscape:snap-object-midpoints="true"
     inkscape:snap-center="true"
     showguides="false"
     inkscape:guide-bbox="true"
     inkscape:snap-grids="true"
     fit-margin-top="18"
     fit-margin-left="0"
     fit-margin-right="0"
     fit-margin-bottom="18"
     inkscape:snap-global="true"
     inkscape:pagecheckerboard="0">
    <inkscape:grid
       type="xygrid"
       id="grid811"
       originx="0"
       originy="15.999999"
       visible="true"
       enabled="true" />
    <sodipodi:guide
       orientation="1,0"
       position="104,176"
       id="guide819"
       inkscape:locked="false" />
    <sodipodi:guide
       orientation="1,0"
       position="120,160"
       id="guide821"
       inkscape:locked="false" />
    <sodipodi:guide
       orientation="1,0"
       position="392,144"
       id="guide823"
       inkscape:locked="false" />
    <sodipodi:guide
       orientation="1,0"
       position="408,144"
       id="guide825"
       inkscape:locked="false" />
    <sodipodi:guide
       orientation="0,1"
       position="328,408"
       id="guide827"
       inkscape:locked="false" />
    <sodipodi:guide
       orientation="0,1"
       position="336,392"
       id="guide829"
       inkscape:locked="false" />
    <sodipodi:guide
       orientation="0,1"
       position="176,120"
       id="guide831"
       inkscape:locked="false" />
    <sodipodi:guide
       orientation="0,1"
       position="216,104"
       id="guide833"
       inkscape:locked="false" />
    <inkscape:grid
       type="axonomgrid"
       id="grid835"
       units="px"
       empspacing="60"
       gridanglex="42.9"
       gridanglez="42.9"
       spacingy="3.522px"
       enabled="false"
       originx="0"
       originy="16.999996" />
    <sodipodi:guide
       orientation="0,1"
       position="344,376"
       id="guide4126"
       inkscape:locked="false" />
    <sodipodi:guide
       orientation="0,1"
       position="160,136"
       id="guide4128"
       inkscape:locked="false" />
    <sodipodi:guide
       orientation="1,0"
       position="136,96"
       id="guide4130"
       inkscape:locked="false" />
    <sodipodi:guide
       orientation="1,0"
       position="376,136"
       id="guide4134"
       inkscape:locked="false" />
    <sodipodi:guide
       orientation="-0.70710678,0.70710678"
       position="256,256"
       id="guide4136"
       inkscape:locked="false" />
    <sodipodi:guide
       orientation="1,0"
       position="256,232"
       id="guide4138"
       inkscape:locked="false" />
    <sodipodi:guide
       orientation="0,1"
       position="288,256"
       id="guide4140"
       inkscape:locked="false" />
    <sodipodi:guide
       orientation="0.70710678,0.70710678"
       position="256,256"
       id="guide4142"
       inkscape:locked="false" />
    <sodipodi:guide
       orientation="0,1"
       position="248,15.999999"
       id="guide4152"
       inkscape:locked="false" />
    <sodipodi:guide
       orientation="0,1"
       position="336,496"
       id="guide4154"
       inkscape:locked="false" />
    <sodipodi:guide
       position="256,272.70628"
       orientation="1,0"
       id="guide51207" />
  </sodipodi:namedview>
  <metadata
     id="metadata3341">
    <rdf:RDF>
      <cc:Work
         rdf:about="">
        <dc:format>image/svg+xml</dc:format>
        <dc:type
           rdf:resource="http://purl.org/dc/dcmitype/StillImage" />
      </cc:Work>
    </rdf:RDF>
  </metadata>
  <g
     inkscape:groupmode="layer"
     id="layer3"
     inkscape:label="Background">
    <path
       style="color:#000000;display:inline;overflow:visible;visibility:visible;fill:url(#linearGradient4287);fill-opacity:1;fill-rule:nonzero;stroke:none;stroke-width:1;marker:none;enable-background:accumulate"
       d="M 0 0 L 0 183.89844 L 0 328.10156 L 0 512 L 512 512 L 512 328.10156 L 512 183.89844 L 512 0 L 0 0 z "
       id="rect4158" />
    <path
       style="color:#000000;font-style:normal;font-variant:normal;font-weight:normal;font-stretch:normal;font-size:medium;line-height:normal;font-family:sans-serif;text-indent:0;text-align:start;text-decoration:none;text-decoration-line:none;text-decoration-style:solid;text-decoration-color:#000000;letter-spacing:normal;word-spacing:normal;text-transform:none;writing-mode:lr-tb;direction:ltr;baseline-shift:baseline;text-anchor:start;white-space:normal;shape-padding:0;clip-rule:nonzero;display:inline;overflow:visible;visibility:visible;opacity:0.094;isolation:auto;mix-blend-mode:normal;color-interpolation:sRGB;color-interpolation-filters:linearRGB;solid-color:#000000;solid-opacity:1;fill:url(#radialGradient4351);fill-opacity:1;fill-rule:nonzero;stroke:none;stroke-width:2;stroke-linecap:butt;stroke-linejoin:round;stroke-miterlimit:4;stroke-dasharray:none;stroke-dashoffset:13.80000019;stroke-opacity:1;marker:none;color-rendering:auto;image-rendering:auto;shape-rendering:auto;text-rendering:auto;enable-background:accumulate"
       d="M 206.05859,50 V 99.033203 H 155.89062 V 50.828125 c -1.12644,0.05227 -2.23721,0.10807 -3.34374,0.166016 V 99.033203 H 102.37891 V 57.310547 c -1.13212,0.272128 -2.24858,0.550878 -3.345707,0.841797 V 99.033203 H 48.865234 v -4.697265 c -1.377467,2.539119 -2.652643,5.215498 -3.826172,8.041012 h 0.482422 v 50.16797 h -11.24414 c -0.103726,1.10472 -0.205235,2.21769 -0.300782,3.3457 h 11.544922 v 50.16797 H 32.048828 c -0.008,1.09983 -0.01237,2.22869 -0.01758,3.34375 h 13.490234 v 50.16797 H 31.999998 v 3.34571 h 13.521484 v 50.16796 H 31.999998 v 3.34375 H 45.521482 V 366.5957 H 32.031248 c 0.0052,1.11572 0.0095,2.24524 0.01758,3.34571 h 13.472656 v 50.16797 H 33.976562 c 0.09549,1.12735 0.197121,2.23966 0.300782,3.34374 h 11.24414 v 50.16797 h -0.484375 c 1.173748,2.82627 2.450345,5.50129 3.828125,8.04102 v -4.69727 h 50.167969 v 40.88282 c 1.097127,0.29092 2.213587,0.56966 3.345707,0.84179 v -41.72461 h 50.16797 v 48.03907 c 1.10654,0.0579 2.21729,0.11374 3.34374,0.16601 v -48.20508 h 50.16797 V 526 h 3.34571 v -49.03516 h 50.16797 V 526 h 3.34375 v -49.03516 h 50.16796 V 526 h 3.34571 v -49.03516 h 50.16797 V 526 h 3.34375 v -49.03516 h 50.16797 v 48.20508 c 1.12711,-0.0523 2.23852,-0.10803 3.3457,-0.16601 v -48.03907 h 50.16797 v 41.72461 c 1.13148,-0.27199 2.24723,-0.55103 3.34375,-0.84179 v -40.88282 h 50.16797 v 4.69727 c 1.37778,-2.53973 2.65437,-5.21475 3.82812,-8.04102 h -0.48437 v -50.16797 h 11.24414 c 0.10366,-1.10408 0.20529,-2.21639 0.30078,-3.34374 h -11.54492 v -50.16797 h 13.47265 c 0.008,-1.10047 0.0124,-2.22999 0.0176,-3.34571 h -13.49023 v -50.16797 h 13.52148 v -3.34375 h -13.52148 v -50.16796 h 13.52148 v -3.34571 h -13.52148 v -50.16797 h 13.49023 c -0.005,-1.11506 -0.01,-2.24392 -0.0176,-3.34375 h -13.47265 v -50.16797 h 11.54492 c -0.0956,-1.12801 -0.19706,-2.24098 -0.30078,-3.3457 h -11.24414 v -50.16797 h 0.48242 c -1.17353,-2.825514 -2.44871,-5.501893 -3.82617,-8.041012 v 4.697265 H 476.9668 V 58.152344 c -1.09652,-0.290759 -2.21227,-0.569808 -3.34375,-0.841797 V 99.033203 H 423.45508 V 50.994141 c -1.10717,-0.05798 -2.2186,-0.113716 -3.3457,-0.166016 V 99.033203 H 369.94141 V 50 h -3.34375 V 99.033203 H 316.42969 V 50 h -3.34571 V 99.033203 H 262.91602 V 50 h -3.34375 V 99.033203 H 209.4043 V 50 Z M 48.865234,102.37695 h 50.167969 v 50.16797 H 48.865234 Z m 53.513676,0 h 50.16797 v 50.16797 h -50.16797 z m 53.51171,0 h 50.16797 v 50.16797 h -50.16797 z m 53.51368,0 h 50.16797 v 50.16797 H 209.4043 Z m 53.51172,0 h 50.16796 v 50.16797 h -50.16796 z m 53.51367,0 h 50.16797 v 50.16797 h -50.16797 z m 53.51172,0 h 50.16797 v 50.16797 h -50.16797 z m 53.51367,0 h 50.16797 v 50.16797 h -50.16797 z m 53.51172,0 h 50.16797 v 50.16797 H 476.9668 Z M 48.865234,155.89062 h 50.167969 v 50.16797 H 48.865234 Z m 53.513676,0 h 50.16797 v 50.16797 h -50.16797 z m 53.51171,0 h 50.16797 v 50.16797 h -50.16797 z m 53.51368,0 h 50.16797 v 50.16797 H 209.4043 Z m 53.51172,0 h 50.16796 v 50.16797 h -50.16796 z m 53.51367,0 h 50.16797 v 50.16797 h -50.16797 z m 53.51172,0 h 50.16797 v 50.16797 h -50.16797 z m 53.51367,0 h 50.16797 v 50.16797 h -50.16797 z m 53.51172,0 h 50.16797 v 50.16797 H 476.9668 Z M 48.865234,209.40234 h 50.167969 v 50.16797 H 48.865234 Z m 53.513676,0 h 50.16797 v 50.16797 h -50.16797 z m 53.51171,0 h 50.16797 v 50.16797 h -50.16797 z m 53.51368,0 h 50.16797 v 50.16797 H 209.4043 Z m 53.51172,0 h 50.16796 v 50.16797 h -50.16796 z m 53.51367,0 h 50.16797 v 50.16797 h -50.16797 z m 53.51172,0 h 50.16797 v 50.16797 h -50.16797 z m 53.51367,0 h 50.16797 v 50.16797 h -50.16797 z m 53.51172,0 h 50.16797 v 50.16797 H 476.9668 Z M 48.865234,262.91602 h 50.167969 v 50.16796 H 48.865234 Z m 53.513676,0 h 50.16797 v 50.16796 h -50.16797 z m 53.51171,0 h 50.16797 v 50.16796 h -50.16797 z m 53.51368,0 h 50.16797 v 50.16796 H 209.4043 Z m 53.51172,0 h 50.16796 v 50.16796 h -50.16796 z m 53.51367,0 h 50.16797 v 50.16796 h -50.16797 z m 53.51172,0 h 50.16797 v 50.16796 h -50.16797 z m 53.51367,0 h 50.16797 v 50.16796 h -50.16797 z m 53.51172,0 h 50.16797 v 50.16796 H 476.9668 Z M 48.865234,316.42773 H 99.033203 V 366.5957 H 48.865234 Z m 53.513676,0 h 50.16797 v 50.16797 h -50.16797 z m 53.51171,0 h 50.16797 v 50.16797 h -50.16797 z m 53.51368,0 h 50.16797 V 366.5957 H 209.4043 Z m 53.51172,0 h 50.16796 v 50.16797 h -50.16796 z m 53.51367,0 h 50.16797 v 50.16797 h -50.16797 z m 53.51172,0 h 50.16797 v 50.16797 h -50.16797 z m 53.51367,0 h 50.16797 v 50.16797 h -50.16797 z m 53.51172,0 h 50.16797 V 366.5957 H 476.9668 Z M 48.865234,369.94141 h 50.167969 v 50.16797 H 48.865234 Z m 53.513676,0 h 50.16797 v 50.16797 h -50.16797 z m 53.51171,0 h 50.16797 v 50.16797 h -50.16797 z m 53.51368,0 h 50.16797 v 50.16797 H 209.4043 Z m 53.51172,0 h 50.16796 v 50.16797 h -50.16796 z m 53.51367,0 h 50.16797 v 50.16797 h -50.16797 z m 53.51172,0 h 50.16797 v 50.16797 h -50.16797 z m 53.51367,0 h 50.16797 v 50.16797 h -50.16797 z m 53.51172,0 h 50.16797 v 50.16797 H 476.9668 Z M 48.865234,423.45312 h 50.167969 v 50.16797 H 48.865234 Z m 53.513676,0 h 50.16797 v 50.16797 h -50.16797 z m 53.51171,0 h 50.16797 v 50.16797 h -50.16797 z m 53.51368,0 h 50.16797 v 50.16797 H 209.4043 Z m 53.51172,0 h 50.16796 v 50.16797 h -50.16796 z m 53.51367,0 h 50.16797 v 50.16797 h -50.16797 z m 53.51172,0 h 50.16797 v 50.16797 h -50.16797 z m 53.51367,0 h 50.16797 v 50.16797 h -50.16797 z m 53.51172,0 h 50.16797 v 50.16797 H 476.9668 Z"
       id="path4580"
       inkscape:connector-curvature="0"
       transform="translate(-32,-32)" />
    <path
       style="color:#000000;display:inline;overflow:visible;visibility:visible;opacity:0.06;fill:#ffffff;fill-opacity:1;fill-rule:nonzero;stroke:none;stroke-width:8;stroke-linecap:butt;stroke-linejoin:miter;stroke-miterlimit:4;stroke-dasharray:none;stroke-dashoffset:0;stroke-opacity:1;marker:none;enable-background:accumulate"
       d="M 262,0 V 512 H 518 V 328.10156 183.89844 0 Z"
       id="rect4238" />
    <text
       xml:space="preserve"
       id="text25682"
       style="font-style:normal;font-weight:normal;font-size:192px;line-height:1.25;font-family:sans-serif;white-space:pre;shape-inside:url(#rect25684);fill:#000000;fill-opacity:1;stroke:none"
       transform="matrix(0.95606737,0,0,0.95606737,63.431209,10.77363)"><tspan
         x="13.521484"
         y="274.49944"
         id="tspan51368"><tspan
           style="font-family:Ubuntu;-inkscape-font-specification:Ubuntu;fill:#f9f9f9"
           id="tspan51366">luitk</tspan></tspan></text>
    <g
       id="g51215"
       transform="translate(-2,6)">
      <g
         inkscape:label="Layer 1"
         id="layer1"
         transform="matrix(2.1765332,0,0,2.1765332,218.08552,-75.697385)"
         inkscape:transform-center-x="54.413436"
         inkscape:transform-center-y="54.413338">
        <rect
           transform="rotate(90)"
           y="-28.142857"
           x="78.505051"
           height="96"
           width="96"
           id="rect4782"
           style="color:#000000;display:inline;overflow:visible;visibility:visible;fill:none;stroke:none;stroke-width:4;marker:none;enable-background:accumulate" />
        <path
           style="color:#000000;display:inline;overflow:visible;visibility:visible;opacity:1;fill:#f9f9f9;fill-opacity:1;fill-rule:nonzero;stroke:none;stroke-width:3.2;stroke-linecap:round;stroke-linejoin:round;stroke-miterlimit:4;stroke-dasharray:none;stroke-dashoffset:0;stroke-opacity:1;marker:none;enable-background:accumulate"
           d="m -3.9190869,164.11158 -39.5839851,39.58399 c -6.089812,6.08991 -4.568337,7.61138 1.521485,13.70117 l 21.316406,21.3164 c 6.089822,6.0899 7.611371,7.61119 13.7011721,1.52149 L 32.619975,200.65064 v -31.97265 c 0,-1.52246 -0.381352,-2.6626 -1.142578,-3.42383 -0.761226,-0.76123 -1.901375,-1.14258 -3.423828,-1.14258 z m 1.689453,3.99414 H 28.077006 l 0.542969,0.006 0.0059,0.54297 v 30.30664 l -38.4062499,38.4082 c -2.9830101,2.96511 -4.1972651,2.29884 -8.0195311,-1.52343 L -39.1144,214.52955 c -3.905512,-3.90551 -4.477139,-5.06388 -1.523437,-8.01758 z"
           id="path4209" />
        <path
           style="color:#000000;display:inline;overflow:visible;visibility:visible;opacity:1;fill:#f9f9f9;fill-opacity:1;fill-rule:nonzero;stroke:none;stroke-width:3.2;stroke-linecap:round;stroke-linejoin:round;stroke-miterlimit:4;stroke-dasharray:none;stroke-dashoffset:0;stroke-opacity:1;marker:none;enable-background:accumulate"
           d="m 17.692908,174.11212 a 5.0001623,5.0001623 0 0 1 3.462701,1.46385 5.0001623,5.0001623 0 0 1 0,7.07117 5.0001623,5.0001623 0 0 1 -7.071168,0 5.0001623,5.0001623 0 0 1 0,-7.07117 5.0001623,5.0001623 0 0 1 3.608467,-1.46385 z"
           id="path4207"
           inkscape:connector-curvature="0" />
        <path
           style="color:#000000;font-style:normal;font-variant:normal;font-weight:normal;font-stretch:normal;font-size:medium;line-height:normal;font-family:sans-serif;font-variant-ligatures:none;font-variant-position:normal;font-variant-caps:normal;font-variant-numeric:normal;font-variant-alternates:normal;font-feature-settings:normal;text-indent:0;text-align:start;text-decoration:none;text-decoration-line:none;text-decoration-style:solid;text-decoration-color:#000000;letter-spacing:normal;word-spacing:normal;text-transform:none;writing-mode:lr-tb;direction:ltr;baseline-shift:baseline;text-anchor:start;white-space:normal;shape-padding:0;clip-rule:nonzero;display:inline;overflow:visible;visibility:visible;opacity:1;isolation:auto;mix-blend-mode:normal;color-interpolation:sRGB;color-interpolation-filters:linearRGB;solid-color:#000000;solid-opacity:1;fill:#f9f9f9;fill-opacity:1;fill-rule:nonzero;stroke:none;stroke-width:4;stroke-linecap:butt;stroke-linejoin:miter;stroke-miterlimit:4;stroke-dasharray:none;stroke-dashoffset:0;stroke-opacity:1;marker:none;color-rendering:auto;image-rendering:auto;shape-rendering:auto;text-rendering:auto;enable-background:accumulate"
           d="m -0.79436287,185.69834 -27.00000013,27 2.828125,2.82812 27.0000001,-27 z"
           id="path4217"
           inkscape:connector-curvature="0" />
        <path
           style="color:#000000;font-style:normal;font-variant:normal;font-weight:normal;font-stretch:normal;font-size:medium;line-height:normal;font-family:sans-serif;font-variant-ligatures:none;font-variant-position:normal;font-variant-caps:normal;font-variant-numeric:normal;font-variant-alternates:normal;font-feature-settings:normal;text-indent:0;text-align:start;text-decoration:none;text-decoration-line:none;text-decoration-style:solid;text-decoration-color:#000000;letter-spacing:normal;word-spacing:normal;text-transform:none;writing-mode:lr-tb;direction:ltr;baseline-shift:baseline;text-anchor:start;white-space:normal;shape-padding:0;clip-rule:nonzero;display:inline;overflow:visible;visibility:visible;opacity:1;isolation:auto;mix-blend-mode:normal;color-interpolation:sRGB;color-interpolation-filters:linearRGB;solid-color:#000000;solid-opacity:1;fill:#f9f9f9;fill-opacity:1;fill-rule:nonzero;stroke:none;stroke-width:4;stroke-linecap:butt;stroke-linejoin:miter;stroke-miterlimit:4;stroke-dasharray:none;stroke-dashoffset:0;stroke-opacity:1;marker:none;color-rendering:auto;image-rendering:auto;shape-rendering:auto;text-rendering:auto;enable-background:accumulate"
           d="m -0.79436287,203.69834 -18.00000013,18 2.828125,2.82812 18.0000001,-18 z"
           id="path4219"
           inkscape:connector-curvature="0" />
      </g>
    </g>
  </g>
  <g
     inkscape:groupmode="layer"
     id="layer4"
     inkscape:label="Pictogram"
     style="display:inline">
    <path
       inkscape:connector-curvature="0"
       id="path4505-6"
       d="m 219.3125,124 -35.1875,71.65625 v 59.25 c -4.93993,5.78797 -10.33923,11.62048 -15.96875,17.25 -18.50312,18.50309 -39.2477,34.68678 -53.125,39.3125 L 91.65625,288.125 20,323.3125 V 494 H 276 V 176.4375 C 260.58338,142.99385 243.63185,130.51631 219.3125,124 Z M 121.75,353 c 0.007,-0.005 0.0239,0.005 0.0312,0 -2.61074,1.63039 -5.25098,3.22668 -7.90625,4.8125 2.65593,-1.58559 5.2637,-3.18237 7.87505,-4.8125 z m -24.09375,14.0625 c 0.008,-0.004 0.0234,0.004 0.0312,0 -2.74184,1.4991 -5.52861,2.98055 -8.3125,4.4375 2.78427,-1.45683 5.53906,-2.93856 8.2813,-4.4375 z"
       style="color:#000000;display:inline;overflow:visible;visibility:visible;opacity:0.05;fill:#ff0000;fill-opacity:0;fill-rule:nonzero;stroke:none;stroke-width:40;marker:none;enable-background:accumulate"
       sodipodi:nodetypes="cccsccccccccccccccc" />
    <g
       style="enable-background:new"
       id="g4494"
       transform="translate(13.42956,19.195035)">
      <path
         inkscape:connector-curvature="0"
         id="path4498"
         d="M 68.907505,157.9999 H 496.72438"
         style="color:#000000;display:inline;overflow:visible;visibility:visible;opacity:0.8;fill:none;stroke:url(#linearGradient4506);stroke-width:2;stroke-linecap:round;stroke-linejoin:round;stroke-miterlimit:4;stroke-dasharray:none;stroke-dashoffset:0;stroke-opacity:1;marker:none;enable-background:accumulate" />
      <path
         inkscape:connector-curvature="0"
         id="path4554"
         d="M 124.46106,114.44048 V 305.33741"
         style="color:#000000;display:inline;overflow:visible;visibility:visible;opacity:0.6;fill:none;stroke:url(#linearGradient4562);stroke-width:2.00002;stroke-linecap:round;stroke-linejoin:round;stroke-miterlimit:4;stroke-dasharray:none;stroke-dashoffset:0;stroke-opacity:1;marker:none;enable-background:accumulate" />
      <path
         style="color:#000000;display:inline;overflow:visible;visibility:visible;opacity:0.6;fill:none;stroke:url(#linearGradient4566);stroke-width:2.00004;stroke-linecap:round;stroke-linejoin:round;stroke-miterlimit:4;stroke-dasharray:none;stroke-dashoffset:0;stroke-opacity:1;marker:none;enable-background:accumulate"
         d="M 186.00012,70.56953 V 281.83459"
         id="path4564"
         inkscape:connector-curvature="0" />
      <path
         inkscape:connector-curvature="0"
         id="path4568"
         d="m 203.00014,140.57431 v 281.6599"
         style="color:#000000;display:inline;overflow:visible;visibility:visible;opacity:0.6;fill:none;stroke:url(#linearGradient4570);stroke-width:2.00009;stroke-linecap:round;stroke-linejoin:round;stroke-miterlimit:4;stroke-dasharray:none;stroke-dashoffset:0;stroke-opacity:1;marker:none;enable-background:accumulate" />
      <path
         style="color:#000000;display:inline;overflow:visible;visibility:visible;opacity:0.6;fill:none;stroke:url(#linearGradient4574);stroke-width:2.00005;stroke-linecap:round;stroke-linejoin:round;stroke-miterlimit:4;stroke-dasharray:none;stroke-dashoffset:0;stroke-opacity:1;marker:none;enable-background:accumulate"
         d="M 280.08415,41.521355 V 297.71692"
         id="path4572"
         inkscape:connector-curvature="0"
         sodipodi:nodetypes="cc" />
      <path
         inkscape:connector-curvature="0"
         id="path4576"
         d="m 330.33644,78.886568 v 47.953972 5.24301 154.96917"
         style="color:#000000;display:inline;overflow:visible;visibility:visible;opacity:0.6;fill:none;stroke:url(#linearGradient4578);stroke-width:1.99999;stroke-linecap:round;stroke-linejoin:round;stroke-miterlimit:4;stroke-dasharray:none;stroke-dashoffset:0;stroke-opacity:1;marker:none;enable-background:accumulate"
         sodipodi:nodetypes="cccc" />
      <path
         style="color:#000000;display:inline;overflow:visible;visibility:visible;opacity:0.6;fill:none;stroke:url(#linearGradient4583);stroke-width:2.00002;stroke-linecap:round;stroke-linejoin:round;stroke-miterlimit:4;stroke-dasharray:none;stroke-dashoffset:0;stroke-opacity:1;marker:none;enable-background:accumulate"
         d="M 390.00011,293.07262 V 117.90197"
         id="path4581"
         inkscape:connector-curvature="0" />
      <path
         sodipodi:nodetypes="cc"
         inkscape:connector-curvature="0"
         id="path4585"
         d="M 474.00923,98.550076 149.07474,413.52546"
         style="color:#000000;display:inline;overflow:visible;visibility:visible;opacity:0.6;fill:none;stroke:url(#linearGradient4587);stroke-width:2.00005;stroke-linecap:round;stroke-linejoin:round;stroke-miterlimit:4;stroke-dasharray:none;stroke-dashoffset:0;stroke-opacity:1;marker:none;enable-background:accumulate" />
      <path
         style="color:#000000;display:inline;overflow:visible;visibility:visible;opacity:0.3;fill:none;stroke:url(#linearGradient4591);stroke-width:2;stroke-linecap:round;stroke-linejoin:round;stroke-miterlimit:4;stroke-dasharray:none;stroke-dashoffset:0;stroke-opacity:1;marker:none;enable-background:accumulate"
         d="M 385.46165,194.0307 499.04896,345.34207"
         id="path4589"
         inkscape:connector-curvature="0"
         sodipodi:nodetypes="cc"
         inkscape:transform-center-x="-21.239175"
         inkscape:transform-center-y="18.58195" />
    </g>
    <text
       xml:space="preserve"
       id="text8150"
       style="fill:black;fill-opacity:1;line-height:1.25;stroke:none;font-family:sans-serif;font-style:normal;font-weight:normal;font-size:40px;white-space:pre;shape-inside:url(#rect8152)" />
  </g>
</svg>
